{
  "type": "service_account",
  "project_id": "ci-cd-217306",
  "private_key_id": "85179d430bb0161dda85848964c1e9db538d551e",
  "private_key": "-----BEGIN PRIVATE KEY-----\nMIIEvAIBADANBgkqhkiG9w0BAQEFAASCBKYwggSiAgEAAoIBAQDnQwBUjy/9ehkR\nR8CUnrmMPSh5QvMJIHAG7UMOSQuprqICdk8iId8nSO93+ZgrMMMLuEFeIabOHxek\nKLns5qH1Q8MatwULjG9aTK1Ekc2VXq2qzVOHoBvrbUDVXvUGr47XKroneDuTuYXq\nKaMfNwcPlHvuIkUPWhS2UQ72OuGcsGnmMcbpoF2ixR06bAaChgu47Evbru2eWjUt\nats+yXrfvZeETJUJfQkAyQEEX5KuYn5IBzFsIYfc+1LsObaGY2g1cQP2zhdLQKZS\nY3qmdZbl95xS1ujxmg6cmpP5rhaG1Ef8inNaTBdpinqF/QDUUg0q7wPgUIyIGoIb\n4UIaVcqRAgMBAAECggEAB6brZWDhhSEboDtAD4ra9910L+L7uLMWkdwa6meXV7N8\nD9nLT4VQZXPf3JfpJZC0+3fKzesOImbb+OYSFNkixcNKuuEQbSvl6VZ9KzYp18Xs\nuCiYGXY+RkF0sjq0n9aCQvNaeoDbc81hNXjQOXGwLZ9LpHsEzve7lLbE6HfVTEJn\n+t1ovT3UFAAROIAQpwt6cb8JbsM4XEzvH6OpUP6TNHOuB8cp2Z3xhPGb+fkflx5R\n1Mv1U08iQdxTj6cKrZqF4mSjFjB2PI8eoIFWMW3pP55PIZRbr10K89BAtdUmZqfk\nke4NqwephZ8Sq3yFAAXNNa/DNWfepixkRb/dH2Dl+QKBgQD6SMicNqWR1b5RDMbN\nBVmpZpzIOFzbOkZJB5SxlB1KAcX+wVZ67ROjSttGfHDgUdBd2pZdFgieSco9DQNZ\nXNtqKYmaPJXsr1FGHY50sYGETGzg44UaohcLiD1bKm/5ooVtNqKANTznuQQKf9So\nwZR+f4j+Sjdpm5665hR+bCItlQKBgQDsiwHqk/uGlRxgF4kcFJ8EB2hX7DNsHAe2\ne84j7DSUJbLVF5VIWuL6DwtPgV5eR1Tr8FQRoj82i/sGpTxYe2C9qHDjo30AKo+r\nziElCFxpTpIj3eDbJv4LxgLZSzc892XoT6kTEYqbBrF+Lvtd+I5O6/oxINyCXYPu\nJrtd1JESDQKBgBbjGv01/hQE8L9mpLNQ3u8fxAyHIu6lOJIrEEzg14DSArIWKftZ\nvKb9DGo4rPXGZYB/oapnfmhDJSxKCVldpW7i14N0MN2Q9qSrxUAkj0xy1K4IAD78\nPZE/ZyT0D4NLeloPWfLRa31hLN5s7Bx2f0bGENf4H3MX2P8MVSluZ/21AoGAFE5S\nmcqeWw1N5Eng8VIr3HKuWG3kdDFr0BSMu7S5RsZ9taFSpWV3+rNz6x1V9o31ElQN\nQ35EIvCdWhKxPX9J7L4bAs+0GWGN99e4LK+tDzU5gm63sNiGEoirEfBNC6TJUMoV\n35cv6OMINabe2VBPFyNW1QTXKTHR843Lo+Btm7kCgYAsmB9TVc5KsH2ANeVAZS+p\nEyK5J4Kuv8cVzeKH4RyOdT2THUFPSF3jAqjY7M7XaLIwk0L/oSEf08Jq9RLLNPR3\nLzDr0UKJ2cKJ14ukRciDKTZD1RglipRsaKnXRFe8bcPOJ/Tq+fJd5cJjA8902NCp\nwD/cTQrmMyansfTclyATzA==\n-----END PRIVATE KEY-----\n",
  "client_email": "dedyeuy-service-account@ci-cd-217306.iam.gserviceaccount.com",
  "client_id": "116599017413266633910",
  "auth_uri": "https://accounts.google.com/o/oauth2/auth",
  "token_uri": "https://oauth2.googleapis.com/token",
  "auth_provider_x509_cert_url": "https://www.googleapis.com/oauth2/v1/certs",
  "client_x509_cert_url": "https://www.googleapis.com/robot/v1/metadata/x509/dedyeuy-service-account%40ci-cd-217306.iam.gserviceaccount.com"
}
